[
    {
        "selector": "node",
        "css": {
            "background-color": "#11479e",
            "content": "data(name)",
            "text-valign": "center",
            "color": "white",
            "text-outline-width": 2,
            "text-outline-color": "#11479e",
            "height": "50px",
            "width": "50px",
            "font-size": 24
        }
    },
    {
        "selector": "node:parent",
        "css": {
            "background-opacity": 0.333
        }
    },
    {
        "selector": "edge",
        "style": {
            "width": 4,
            "line-color": "#9dbaea",
            "target-arrow-shape": "triangle",
            "target-arrow-color": "#9dbaea",
            "curve-style": "bezier"
        }
    },
    {
        "selector": "node[id = 'n1']",
        "style": {
            "color": "#11479e",
            "content": "data(name)",
            "background-color": "white",
            "font-size": 24,
            "height": "50px",
            "width": "50px",
            "border-width": 2,
            "border-color": "#11479e",
            "text-outline-color": "white"
        }
    },
    {
        "selector": "node.correct",
        "style": {
            "color": "#008000",
            "content": "data(name)",
            "background-color": "white",
            "font-size": 24,
            "height": "50px",
            "width": "50px",
            "border-width": 2,
            "border-color": "#008000",
            "text-outline-color": "white"
        }
    },
    {
        "selector": "node.false_positive",
        "style": {
            "color": "#9E1A1A",
            "content": "data(name)",
            "background-color": "white",
            "font-size": 24,
            "height": "50px",
            "width": "50px",
            "border-width": 2,
            "border-color": "#9E1A1A",
            "text-outline-color": "white"
        }
    },
    {
        "selector": "node.false_negative",
        "style": {
            "color": "white",
            "content": "data(name)",
            "background-color": "#9E1A1A",
            "font-size": 24,
            "height": "50px",
            "width": "50px",
            "border-width": 2,
            "border-color": "white",
            "text-outline-color": "#9E1A1A"
        }
    }
]